<?xml version="1.0" encoding="UTF-8"?>
<svg width="9px" height="6px" viewBox="0 0 9 6" version="1.1" xmlns="http://www.w3.org/2000/svg" xmlns:xlink="http://www.w3.org/1999/xlink">
    <!-- Generator: Sketch 58 (84663) - https://sketch.com -->
    <title>Triangle</title>
    <desc>Created with Sketch.</desc>
    <g id="Final" stroke="none" stroke-width="1" fill="none" fill-rule="evenodd">
        <g id="Science" transform="translate(-917.000000, -1426.000000)" fill="#A68C8B">
            <polygon id="Triangle" transform="translate(921.500000, 1429.000000) rotate(-180.000000) translate(-921.500000, -1429.000000) " points="921.5 1426 926 1432 917 1432"></polygon>
        </g>
    </g>
</svg>